{
    "name": "squeaker",
    "title": "Squeaker",
    "description": "<p>Chat sounds configuration</p>",
    "version": "1.2.7",
    "author": "U~man",
    "scripts": [],
    "esmodules": [
      "squeaker.js"
    ],
    "styles": [
    ],
    "packs": [],
    "languages": [],
    "url": "https://gitlab.com/mesfoliesludiques/foundryvtt-squeaker",
    "manifest": "https://gitlab.com/mesfoliesludiques/foundryvtt-squeaker/-/raw/master/module.json",
    "download": "https://gitlab.com/mesfoliesludiques/foundryvtt-squeaker/-/archive/master/foundryvtt-squeaker-master.zip",
    "minimumCoreVersion": "0.5.5",
    "compatibleCoreVersion": "0.8.5"
  }